<svg id="svg-source" height="0" version="1.1" 
  xmlns="http://www.w3.org/2000/svg" style="position:absolute; margin-left: -100%" 
  xmlns:xlink="http://www.w3.org/1999/xlink">
  <g id="laptop" data-iconmelon="80 icons pack:a3975a72e3558c0750d5f4ab2656b32c">
    <g>
      <g>
        <path d="M31.615,24.182l-4.021-4.723c0.424-0.564,0.679-1.262,0.679-2.02V7.496c0-1.86-1.514-3.374-3.374-3.374H7.089
			c-1.86,0-3.374,1.513-3.374,3.374v9.943c0,0.758,0.255,1.455,0.678,2.02l-4.109,4.829c-0.3,0.353-0.368,0.847-0.174,1.268
			l1.078,2.323h29.613L32,25.057C32,24.711,31.852,24.399,31.615,24.182 M6.091,7.496c0-0.551,0.448-0.998,0.998-0.998h17.811
			c0.55,0,0.998,0.447,0.998,0.998v9.943c0,0.55-0.448,0.998-0.998,0.998H7.089c-0.55,0-0.998-0.448-0.998-0.998V7.496z
			 M18.771,26.542h-5.543c-0.205,0-0.371-0.167-0.371-0.372c0-0.205,0.166-0.371,0.371-0.371h5.543c0.205,0,0.371,0.167,0.371,0.371
			C19.143,26.375,18.977,26.542,18.771,26.542 M3.758,23.869l2.35-2.76h19.773l2.349,2.76H3.758z"></path>
      </g>
    </g>
  </g>
</svg>