<svg id="svg-source" height="0" version="1.1" 
  xmlns="http://www.w3.org/2000/svg" style="position:absolute; margin-left: -100%" 
  xmlns:xlink="http://www.w3.org/1999/xlink">
  <g id="folder" data-iconmelon="80 icons pack:c53b8da8ca75696214c0da7642184490">
    <g>
      <g>
        <path d="M29.795,30.696H2.204C0.988,30.696,0,29.708,0,28.492V3.507c0-1.216,0.988-2.204,2.204-2.204h12.693
			c1.216,0,2.204,0.988,2.204,2.204v1.471h12.693C31.011,4.978,32,5.966,32,7.182v21.311C32,29.708,31.011,30.696,29.795,30.696z
			 M2.204,3.507v24.985h27.593L29.795,7.182H14.897V3.507H2.204z"></path>
      </g>
    </g>
  </g>
</svg>