<svg id="svg-source" height="0" version="1.1" 
  xmlns="http://www.w3.org/2000/svg" style="position:absolute; margin-left: -100%" 
  xmlns:xlink="http://www.w3.org/1999/xlink">
  <g id="wallet" data-iconmelon="80 icons pack:3dbd9797ad4e11581eabdd96286797a4">
    <g>
      <g>
        <path d="M27.77,17.984h-0.843V12.24c0-1.014-0.825-1.838-1.839-1.838h-0.296l0.89-1.135c0.57-0.728,0.442-1.782-0.285-2.354
			l-8.367-6.558C16.736,0.127,16.369,0,15.996,0c-0.519,0-0.999,0.233-1.32,0.643L13.24,2.475l-1.194-0.66
			c-0.249-0.138-0.528-0.21-0.812-0.21c-0.609,0-1.171,0.331-1.467,0.864l-1.379,2.49L7.953,4.828
			C7.795,4.78,7.633,4.757,7.469,4.757c-0.744,0-1.389,0.479-1.604,1.191l-1.344,4.454H4.23c-1.014,0-1.838,0.824-1.838,1.838
			v17.922C2.393,31.176,3.217,32,4.23,32h20.857c1.014,0,1.839-0.824,1.839-1.838v-5.744h0.843c1.014,0,1.838-0.824,1.838-1.838
			v-2.758C29.607,18.809,28.783,17.984,27.77,17.984 M16.023,1.903l8.111,6.357l-1.678,2.142h-1.1l0.644-1.161
			c0.448-0.809,0.154-1.83-0.653-2.278l-6.479-3.587L16.023,1.903z M11.297,3.501l9.018,4.991l-1.057,1.91h-0.132l0.126-0.415
			c0.266-0.885-0.236-1.822-1.121-2.089l-7.941-2.396L11.297,3.501z M7.578,6.635l9.867,2.977l-0.24,0.791H6.441L7.578,6.635z
			 M25.09,30.162H4.23V12.24h20.857v5.744h-7.646c-1.014,0-1.838,0.824-1.838,1.838v2.758c0,1.014,0.824,1.838,1.838,1.838h7.647
			L25.09,30.162z M17.441,22.58v-2.758H27.77l0.002,2.758H17.441z"></path>
      </g>
    </g>
  </g>
</svg>